{
  "headers": [
    {
      "source": "/(.*)",
      "headers": [
        { "key": "Cross-Origin-Oener-Policy", "value": "same-oringin" },
        { "key": "Cross-Origin-Embeder-Policy", "value": "require-corp" }
      ]
    }
  ]
}
